…
The GVA chapter is built around the `year_sector_data` class. To create
a `year_sector_data` object, a `data.frame` must be passed to it which
contains all the data required to produce the tables and charts in
Chapter three.

An example of how this dataset will need to look is bundled with the
package: `GVA_by_sector_2016`. These data were extracted directly from
the 2016 SFR which is in the public domain, and provide a test case for
evaluating the data.

    library(eesectors) 
    GVA_by_sector_2016 

    ## # A tibble: 54 × 3
    ##      sector  year    GVA
    ##      <fctr> <int>  <dbl>
    ## 1  creative  2010  65188
    ## 2   culture  2010  20291
    ## 3   digital  2010  97303
    ## 4  gambling  2010   8407
    ## 5     sport  2010   7016
    ## 6  telecoms  2010  24738
    ## 7   tourism  2010  49150
    ## 8  creative  2011  69398
    ## 9   culture  2011  20954
    ## 10  digital  2011 102966
    ## # ... with 44 more rows
…
